^A:\DOCUMENTS\VISUAL STUDIO 2019\REPOS\CONATUSENGINE\CONATUS ENGINE\DEBUG\AUDIO.OBJ|A:\DOCUMENTS\VISUAL STUDIO 2019\REPOS\CONATUSENGINE\CONATUS ENGINE\DEBUG\EVENT_HANDLER.OBJ|A:\DOCUMENTS\VISUAL STUDIO 2019\REPOS\CONATUSENGINE\CONATUS ENGINE\DEBUG\MAIN.OBJ|A:\DOCUMENTS\VISUAL STUDIO 2019\REPOS\CONATUSENGINE\CONATUS ENGINE\DEBUG\MAP.OBJ|A:\DOCUMENTS\VISUAL STUDIO 2019\REPOS\CONATUSENGINE\CONATUS ENGINE\DEBUG\MUSIC.OBJ|A:\DOCUMENTS\VISUAL STUDIO 2019\REPOS\CONATUSENGINE\CONATUS ENGINE\DEBUG\RENDER_MANAGER.OBJ|A:\DOCUMENTS\VISUAL STUDIO 2019\REPOS\CONATUSENGINE\CONATUS ENGINE\DEBUG\SOUND_EFFECTS.OBJ|A:\DOCUMENTS\VISUAL STUDIO 2019\REPOS\CONATUSENGINE\CONATUS ENGINE\DEBUG\TEXTURE_MANAGER.OBJ|A:\DOCUMENTS\VISUAL STUDIO 2019\REPOS\CONATUSENGINE\CONATUS ENGINE\DEBUG\TILE.OBJ|A:\DOCUMENTS\VISUAL STUDIO 2019\REPOS\CONATUSENGINE\CONATUS ENGINE\DEBUG\UNIT.OBJ
A:\DOCUMENTS\VISUAL STUDIO 2019\REPOS\CONATUSENGINE\DEBUG\CONATUS ENGINE.EXE
A:\DOCUMENTS\VISUAL STUDIO 2019\REPOS\CONATUSENGINE\DEBUG\CONATUS ENGINE.ILK
A:\DOCUMENTS\VISUAL STUDIO 2019\REPOS\CONATUSENGINE\DEBUG\CONATUS ENGINE.PDB
